Categorise continuous age into age groups — as_age_groups • nottshcMethods
…
# Example using a data frame
tibble::tibble(age = sample(1:115, 100, replace = TRUE)) %>%
  dplyr::mutate(age_groups = as_age_groups(age, min = 10, max = 100))
#> # A tibble: 100 × 2
#>      age age_groups
#>    <int> <fct>     
#>  1    79 70-79     
#>  2    85 80-89     
#>  3    37 30-39     
#>  4     8 NA        
#>  5    51 50-59     
#>  6    74 70-79     
#>  7    50 50-59     
#>  8   106 100+      
#>  9   108 100+      
#> 10    98 90-99     
#> # … with 90 more rows
…
